{
    "status": "ok",
    "count": 20,
    "count_total": 20,
    "pages": 1,
    "posts": [
        {
            "id": 159,
            "type": "recipe",
            "slug": "baked-trout-with-rosemary-and-sweet-potato-wedges",
            "url": "http://goph.recipes/recipe/baked-trout-with-rosemary-and-sweet-potato-wedges/",
            "status": "publish",
            "title": "Baked trout with rosemary and sweet potato wedges",
            "title_plain": "Baked trout with rosemary and sweet potato wedges",
            "content": "",
            "excerpt": "",
            "date": "2014-08-19 07:12:26",
            "modified": "2014-08-19 07:12:26",
            "categories": [],
            "tags": [],
            "author": {
                "id": 1,
                "slug": "myphmonitor",
                "name": "myphmonitor",
                "first_name": "Andres",
                "last_name": "Arguello Pitt",
                "nickname": "myphmonitor",
                "url": "",
                "description": ""
            },
            "comments": [],
            "attachments": [],
            "comment_count": 0,
            "comment_status": "closed",
            "custom_fields": {
                "serves": [
                    "2"
                ],
                "preparation": [
                    "Pre-heat oven to 190 degrees centigrade/ gas 5\r\n\r\nRoughly chop fennel and blanch in boiling water for 2 minutes and drain.\r\n\r\nCut sweet  potatoes into wedges.\r\n\r\nPut wedges and fennel on large roasting tin and pour three uarters of the oil over and season\r\n\r\nCrush 2 garlic cloves with skin still on and add to roasting tin with broken-up sprigs sod rosemary. Gently toss all together to coat in olive oil.\r\n\r\nArrange in a thin layer and bake for 1 minutes.\r\n\r\nScale, gut and wash trout. Remove heads if desired!\r\n\r\nPeel crush and slice remaining  garlic. Make three slashes across each fish and insert garlic slices Season inside and out, drizzle oil over fish and rub into the fish.\r\n\r\nRemove roasting tin from oven after 15 minutes. Add trout and sprigs of cherry tomatoes and give a final drizzle of oil.\r\n\r\nRoast until potatoes and fish are cooked through about  25 to 35 minutes.\r\n\r\nGarnish with chopped parsley and serve with a green salad or broccoli. (Options for fish include sea bass  or bream."
                ],
                "ingredients": [
                    "2 whole trout\r\n\r\n1 large fennel bulb\r\n\r\n2 medium sweet potatoes\r\n\r\n4 tablespoons olive oil\r\n\r\n4 garlic cloves\r\n\r\n2 sprigs rosemary\r\n\r\n200 g cherry tomatoes on the vine\r\n\r\nGreen salad or broccoli\r\n\r\n(Mix baby salad leaves. Use one tablespoon lemon juice, 2 tablespoons  extra virgin oil. Salt and pepper and dash of mustard.)\r\n\r\n&nbsp;"
                ],
                "ph_information": [
                    "Sweet potatoes and green salad/broccoli are all strongly alkalising and will more than balance the slight acidity of the trout."
                ],
                "ph_bracket": [
                    "7.6 to 8"
                ],
                "mealtime": [
                    "6"
                ]
            }
        },
        {
            "id": 157,
            "type": "recipe",
            "slug": "blueberry-and-banana-smoothie",
            "url": "http://goph.recipes/recipe/blueberry-and-banana-smoothie/",
            "status": "publish",
            "title": "Blueberry and banana smoothie",
            "title_plain": "Blueberry and banana smoothie",
            "content": "",
            "excerpt": "",
            "date": "2014-08-19 06:50:45",
            "modified": "2014-08-19 06:50:45",
            "categories": [],
            "tags": [],
            "author": {
                "id": 1,
                "slug": "myphmonitor",
                "name": "myphmonitor",
                "first_name": "Andres",
                "last_name": "Arguello Pitt",
                "nickname": "myphmonitor",
                "url": "",
                "description": ""
            },
            "comments": [],
            "attachments": [],
            "comment_count": 0,
            "comment_status": "closed",
            "custom_fields": {
                "serves": [
                    "2"
                ],
                "preparation": [
                    "Blend blueberries, banana, yoghurt, seeds together until smooth.\r\n\r\nCheck consistency and if required add small amount of liquid.\r\n\r\nChill pour into 2 glasses and serve."
                ],
                "ingredients": [
                    "200 g blueberries\r\n\r\n2 bananas\r\n\r\n6 tablespoons plain organic yoghurt\r\n\r\n2 tablespoons flaxseed\r\n\r\nCouple of tablespoons water or juice if required"
                ],
                "ph_information": [
                    "Firm bananas are really alkaline which will neutralise the yoghurt and blueberries."
                ],
                "ph_bracket": [
                    "7.6 to 8"
                ],
                "mealtime": [
                    "7"
                ]
            }
        },
        {
            "id": 155,
            "type": "recipe",
            "slug": "chicken-and-avocado-sandwich",
            "url": "http://goph.recipes/recipe/chicken-and-avocado-sandwich/",
            "status": "publish",
            "title": "Chicken and avocado sandwich",
            "title_plain": "Chicken and avocado sandwich",
            "content": "",
            "excerpt": "",
            "date": "2014-08-19 06:43:56",
            "modified": "2014-08-19 06:43:56",
            "categories": [],
            "tags": [],
            "author": {
                "id": 1,
                "slug": "myphmonitor",
                "name": "myphmonitor",
                "first_name": "Andres",
                "last_name": "Arguello Pitt",
                "nickname": "myphmonitor",
                "url": "",
                "description": ""
            },
            "comments": [],
            "attachments": [],
            "comment_count": 0,
            "comment_status": "closed",
            "custom_fields": {
                "serves": [
                    "2"
                ],
                "preparation": [
                    "Slice chicken and shred lettuce leaves.\r\n\r\nTrim spring onions and halve lengthwise.\r\n\r\nPeel and slice avocado and toss in lemon juice.\r\n\r\nIn a small bowl mix mayonnaise with the herbs and season lightly.\r\n\r\nToast spelt bread and spread each slice with the herb mayonnaise.\r\n\r\nTop two of the slices with lettuce, spring onions and avocado. Place chicken slices on top and sandwich together with remaining bread.\r\n\r\nServe garnished with basil leaf and cherry tomato.\r\n\r\n&nbsp;"
                ],
                "ingredients": [
                    "100 g of cold cooked chicken\r\n\r\n2 iceberg lettuce leaves\r\n\r\n1 avocado\r\n\r\n1 tablespoon lemon juice\r\n\r\n4 slices spelt bread\r\n\r\n2 dessertspoons mayonnaise\r\n\r\n1 dessertspoon each basil, tarragon and dill\r\n\r\nSalt and pepper"
                ],
                "ph_information": [
                    "Avocado is listed as highly alkaline and will help counterbalance the acid-forming chicken"
                ],
                "ph_bracket": [
                    "7.6 to 8"
                ],
                "mealtime": [
                    "5"
                ]
            }
        },
        {
            "id": 151,
            "type": "recipe",
            "slug": "smoked-salmon-and-scrambled-egg-with-dill-on-rye-toast",
            "url": "http://goph.recipes/recipe/smoked-salmon-and-scrambled-egg-with-dill-on-rye-toast/",
            "status": "publish",
            "title": "Smoked salmon and scrambled egg with dill on rye toast",
            "title_plain": "Smoked salmon and scrambled egg with dill on rye toast",
            "content": "",
            "excerpt": "",
            "date": "2014-08-18 21:38:35",
            "modified": "2014-08-18 21:38:35",
            "categories": [],
            "tags": [],
            "author": {
                "id": 1,
                "slug": "myphmonitor",
                "name": "myphmonitor",
                "first_name": "Andres",
                "last_name": "Arguello Pitt",
                "nickname": "myphmonitor",
                "url": "",
                "description": ""
            },
            "comments": [],
            "attachments": [],
            "comment_count": 0,
            "comment_status": "closed",
            "custom_fields": {
                "serves": [
                    "2"
                ],
                "preparation": [
                    "Break eggs into a bowl, add milk and seasoning. Whisk until yolks and shies are well mixed.\r\n\r\nPut a knob of butter into a cold saucepan and pour in egg mixture.\r\n\r\nPut bread on to toast.\r\n\r\nCook egg mixture over  low heat, stirring continuously until they are almost set.\r\n\r\nShred salmon into thin strips and fold in gently in eggs.\r\n\r\nPut a slice of toast on each plate, butter if desired and top with eggs.\r\n\r\nGarnish with sprig of dill and cherry tomatoes."
                ],
                "ingredients": [
                    "4 free range eggs\r\n\r\n2 tablespoons creamy milk\r\n\r\nsalt and pepper\r\n\r\n50 g smoked salmon\r\n\r\n1 tablespoon chopped dill\r\n\r\nknob of  butter\r\n\r\nto garnish extra dill and a few cherry tomatoes."
                ],
                "ph_information": [
                    "The pH of this dish is not a problem for those in the alkaline range and if lemon  juice is consumed it will help neutralise the acid pH of the salmon and eggs."
                ],
                "ph_bracket": [
                    "7.6 to 8"
                ],
                "mealtime": [
                    "4"
                ]
            }
        },
        {
            "id": 148,
            "type": "recipe",
            "slug": "quinoa-with-mediterranean-vegetable-salad",
            "url": "http://goph.recipes/recipe/quinoa-with-mediterranean-vegetable-salad/",
            "status": "publish",
            "title": "Quinoa with Mediterranean vegetable salad",
            "title_plain": "Quinoa with Mediterranean vegetable salad",
            "content": "",
            "excerpt": "",
            "date": "2014-08-18 21:07:44",
            "modified": "2014-08-18 21:07:44",
            "categories": [],
            "tags": [],
            "author": {
                "id": 1,
                "slug": "myphmonitor",
                "name": "myphmonitor",
                "first_name": "Andres",
                "last_name": "Arguello Pitt",
                "nickname": "myphmonitor",
                "url": "",
                "description": ""
            },
            "comments": [],
            "attachments": [],
            "comment_count": 0,
            "comment_status": "closed",
            "custom_fields": {
                "serves": [
                    "2"
                ],
                "preparation": [
                    "Pre-heat oven to 220 degrees/gas 7\r\n\r\nCut onion, aubergine, courgette and peppers into large dice about one and half centimetres.\r\n\r\nSkin and crush garlic.\r\n\r\nIn an ovenproof dish, toss the onion, aubergine, courgette, peppers and garlic in the oil together with dried basil, salt and pepper.\r\n\r\nRoast on top shelf of oven for fifteen minutes.\r\n\r\nRemove from oven and stir in tomatoes. Return to oven for further ten to fifteen minutes until vegetables are soft.\r\n\r\nFluff up the cooked quinoa and pace in large bowl and leave to cool.\r\n\r\nSeason quinoa with salt and pepper, add one tablespoon olive oil, chopped parsley, chopped basil and mix well.\r\n\r\nWhen roasted vegetables have cooked, stir into the quinoa salad and season as required.\r\n\r\nServe scattered with toasted pine nuts. For a variation may also be served with crumbled feta cheese.\r\n\r\nMethod of preparation of cooked quinoa:\r\n\r\nIf using onion,heat oil in heavy saucepan, add onion and sauté for five minutes until soft but not brown.\r\n\r\nAdd the washed and drained quinoa, together with the stock and seasoning.\r\n\r\nBring to the boil, reduce heat to low and cover tightly. Simmer for fifteen minutes and leave to stand for a further  fifteen minutes with the lid on as the quinoa is steaming. If serving as a side dish, garnish with parsley.\r\n\r\n&nbsp;\r\n\r\n&nbsp;\r\n\r\n&nbsp;"
                ],
                "ingredients": [
                    "1 red onion\r\n\r\n1 aubergine\r\n\r\n1 courgette\r\n\r\n1 red pepper\r\n\r\n1 green pepper\r\n\r\n1 tin tomatoes (halved)\r\n\r\nOlive oil\r\n\r\n2 cloves garlic\r\n\r\nhalf a teaspoon of dried basil\r\n\r\nsalt and pepper.\r\n\r\nTo serve: cooked quinoa with 25 g toasted pine nuts, a few basil leaves and 2 tablespoons chopped parsley.\r\n\r\n&nbsp;"
                ],
                "ph_information": [
                    "The slightly acid pH of the quinoa will be balanced by the alkalinity of the vegetables. A generous garnishing with parsley will increase iron, vitamin C and folic acid contents of the dish and pine nuts are another source of protein.\r\n\r\nQuinoa is a grain-like seed which looks and boils like rice. It is a superb source of easily digested protein containing all 8 essential amino acids. Its low GL carbohydrate provides long lasting energy and it is also a source of iron, calcium and magnesium."
                ],
                "ph_bracket": [
                    "5 to 6.2"
                ],
                "mealtime": [
                    "6"
                ]
            }
        },
        {
            "id": 145,
            "type": "recipe",
            "slug": "spinach-and-rosemary-soup",
            "url": "http://goph.recipes/recipe/spinach-and-rosemary-soup/",
            "status": "publish",
            "title": "Spinach and rosemary soup",
            "title_plain": "Spinach and rosemary soup",
            "content": "",
            "excerpt": "",
            "date": "2014-08-18 19:47:55",
            "modified": "2014-08-18 19:47:55",
            "categories": [],
            "tags": [],
            "author": {
                "id": 1,
                "slug": "myphmonitor",
                "name": "myphmonitor",
                "first_name": "Andres",
                "last_name": "Arguello Pitt",
                "nickname": "myphmonitor",
                "url": "",
                "description": ""
            },
            "comments": [],
            "attachments": [],
            "comment_count": 0,
            "comment_status": "closed",
            "custom_fields": {
                "serves": [
                    "4"
                ],
                "preparation": [
                    "Heat oil in a heavy saucepan.\r\n\r\nAdd onions and potatoes and stir until well coated. Add salt and pepper, cover and sweat over a gentle heat for ten minutes. Stir occasionally to prevent sticking.\r\n\r\nIn a separate saucepan, bring stock and milk to the boil and add to the vegetables.\r\n\r\nBring back to the boil and simmer until onions and potatoes are fully cooked.\r\n\r\nAdd spinach and boil with the lid off for three to five minutes until spinach is tender. Don't overcook.\r\n\r\nAdd chopped rosemary, liquidise and check seasoning.\r\n\r\nServe immediately garnished with a blob of cream and rosemary. Instead of spinach other green vegetables, lettuce, cabbage, kale, watercress in any combination can be used."
                ],
                "ingredients": [
                    "2 tablespoons of olive oil\r\n\r\n100 g onion chopped\r\n\r\n150 g potatoes, peeled and chopped\r\n\r\n600 ml vegetable stock\r\n\r\nsalt and pepper\r\n\r\n400 g creamy milk\r\n\r\n300 g spinach de-stalked and chopped\r\n\r\n1 tablespoon chopped rosemary"
                ],
                "ph_information": [
                    "Spinach is a highly alkaline vegetable. It is high in vitamin A, folate, iron, magnesium, calcium, vitamin C, riboflavin, potassium and vitamin B12. It will more than balance the slight acidity of the milk."
                ],
                "ph_bracket": [
                    "5  to  6.2"
                ],
                "mealtime": [
                    "6"
                ]
            }
        },
        {
            "id": 143,
            "type": "recipe",
            "slug": "aubergine-with-cashew-pesto-sweet-tomato-salsa-and-green-salad",
            "url": "http://goph.recipes/recipe/aubergine-with-cashew-pesto-sweet-tomato-salsa-and-green-salad/",
            "status": "publish",
            "title": "Aubergine with cashew pesto, sweet tomato salsa and green salad",
            "title_plain": "Aubergine with cashew pesto, sweet tomato salsa and green salad",
            "content": "",
            "excerpt": "",
            "date": "2014-08-18 19:08:35",
            "modified": "2014-08-18 19:08:35",
            "categories": [],
            "tags": [],
            "author": {
                "id": 1,
                "slug": "myphmonitor",
                "name": "myphmonitor",
                "first_name": "Andres",
                "last_name": "Arguello Pitt",
                "nickname": "myphmonitor",
                "url": "",
                "description": ""
            },
            "comments": [],
            "attachments": [],
            "comment_count": 0,
            "comment_status": "closed",
            "custom_fields": {
                "serves": [
                    "2"
                ],
                "preparation": [
                    "Pre-heat oven to 180 degrees/gas 4.\r\n\r\nHalve aubergine lengthways and place cut side up on baking tray or oven proof dish. Drizzle with t tablespoon olive oil and bake for 20 to 25 minutes until almost tender.\r\n\r\nProcess cashew, coriander, garlic and remaining olive oil in food processor to a rough paste.\r\n\r\nWhen aubergine halves are almost tender, coat them with the pesto and return to the oven for a further ten minutes until pesto starts to crisp and brown.\r\n\r\nServe sprinkled with crumbled feta and accompanied by sweet tomato salsa and a green salad.\r\n\r\nPreparation of sweet tomato salsa:\r\n\r\nWash deseed and dice tomatoes, place in bowl and mix in parsley and sesame seeds.\r\n\r\nWhisk together olive oil, lemon juice and agave syrup and toss through the tomato mixture."
                ],
                "ingredients": [
                    "1 aubergine\r\n\r\n4 tablespoons olive oil\r\n\r\n50 g cashew nuts\r\n\r\n2 cloves garlic\r\n\r\nsmall bunch coriander\r\n\r\n50 g feta cheese\r\n\r\nServe with sweet tomato salsa and a green salad\r\n\r\n100 g vine tomatoes\r\n\r\n1 tablespoon chopped parsley\r\n\r\n25 g sesame seeds\r\n\r\n2 tablespoons olive oil\r\n\r\nJuice 1 lemon 2 teaspoons agave syrup"
                ],
                "ph_information": [
                    "The alkaline pH of aubergine, coriander, green salad and tomatoes will balance the acid pH of the nuts and cheese, both of which are good sources of calcium and protein. 70 mcg of vitamin A.\r\n\r\nApproximately 8 g of protein and approximately 12 g of fat"
                ],
                "ph_bracket": [
                    "5 to 6.2"
                ],
                "mealtime": [
                    "5"
                ]
            }
        },
        {
            "id": 136,
            "type": "recipe",
            "slug": "avocado-toast",
            "url": "http://goph.recipes/recipe/avocado-toast/",
            "status": "publish",
            "title": "Avocado toast",
            "title_plain": "Avocado toast",
            "content": "",
            "excerpt": "",
            "date": "2014-08-18 18:34:15",
            "modified": "2014-08-18 18:34:15",
            "categories": [],
            "tags": [],
            "author": {
                "id": 1,
                "slug": "myphmonitor",
                "name": "myphmonitor",
                "first_name": "Andres",
                "last_name": "Arguello Pitt",
                "nickname": "myphmonitor",
                "url": "",
                "description": ""
            },
            "comments": [],
            "attachments": [],
            "comment_count": 0,
            "comment_status": "closed",
            "custom_fields": {
                "serves": [
                    "2"
                ],
                "preparation": [
                    "Cut avocados all around with a sharp knife, twist and remove stone and scoop flesh into a bowl. Mash roughly with a fork and add lemon juice (stops the discolouration) parsley, salt and pepper.\r\n\r\nHalve the tomatoes and season. Toast bread, cut in half diagonally and divide between two plates.\r\n\r\nDrizzle with a little olive oil and put the avocado on top.\r\n\r\nServe garnished with cherry tomatoes."
                ],
                "ingredients": [
                    "2 avocados\r\n\r\n2 slices rye bread\r\n\r\nJuice of half a lemon\r\n\r\n1 tablespoon chopped parsley\r\n\r\n1 tablespoon of olive oil\r\n\r\nSea salt\r\n\r\nBlack pepper\r\n\r\n6 cherry tomatoes"
                ],
                "ph_information": [
                    "<ol>\r\n\t<li>Avocados. One avocado has 1860 mcg of vitamin A. Also 161.1 mcg vitamin B12. Essential. Monounsaturated fats protects the heart and blood vessels. Avocados have antioxidant as well as antacid properties. The fat is good  all 80 percent of it. The potassium is high with 1484 mg.</li>\r\n</ol>\r\n&nbsp;\r\n\r\n&nbsp;\r\n\r\n&nbsp;\r\n\r\n&nbsp;"
                ],
                "ph_bracket": [
                    "5 to 6.2"
                ],
                "mealtime": [
                    "4"
                ]
            }
        },
        {
            "id": 134,
            "type": "recipe",
            "slug": "green-breakfast-smoothie",
            "url": "http://goph.recipes/recipe/green-breakfast-smoothie/",
            "status": "publish",
            "title": "Green breakfast smoothie",
            "title_plain": "Green breakfast smoothie",
            "content": "",
            "excerpt": "",
            "date": "2014-08-18 11:18:35",
            "modified": "2014-08-18 11:18:35",
            "categories": [],
            "tags": [],
            "author": {
                "id": 1,
                "slug": "myphmonitor",
                "name": "myphmonitor",
                "first_name": "Andres",
                "last_name": "Arguello Pitt",
                "nickname": "myphmonitor",
                "url": "",
                "description": ""
            },
            "comments": [],
            "attachments": [],
            "comment_count": 0,
            "comment_status": "closed",
            "custom_fields": {
                "serves": [
                    "1"
                ],
                "preparation": [
                    "Put all ingredients into the food processor and blend until smooth. Add some crushed ice cubes if desired.\r\n\r\nPour into a glass and decorate with red currants."
                ],
                "ingredients": [
                    "250 g strawberries\r\n\r\n1 large kiwi\r\n\r\n1 large banana\r\n\r\n1 tablespoon spirulina (dried seaweed)\r\n\r\n1 tablespoon linseeds\r\n\r\n1 tablespoon linseeds"
                ],
                "ph_information": [
                    "A super  alkalising and nourishing drink. Spirulina which is available from health food stores is packed with iron and b vitamins including B12 which are often lacking in vegetarian diets. This smoothie has superb immune -boosting and liver cleansing properties. One cup of spirulina has 86 mcg of vitamin A. Also 204 mg of potassium  with 157 mg of sodium. So it really is a booster."
                ],
                "ph_bracket": [
                    "5 to 6.2"
                ],
                "mealtime": [
                    "4"
                ]
            }
        },
        {
            "id": 131,
            "type": "recipe",
            "slug": "strawberry-and-orange-smoothie",
            "url": "http://goph.recipes/recipe/strawberry-and-orange-smoothie/",
            "status": "publish",
            "title": "Strawberry and orange smoothie",
            "title_plain": "Strawberry and orange smoothie",
            "content": "",
            "excerpt": "",
            "date": "2014-08-18 10:47:03",
            "modified": "2014-08-25 15:42:48",
            "categories": [],
            "tags": [],
            "author": {
                "id": 1,
                "slug": "myphmonitor",
                "name": "myphmonitor",
                "first_name": "Andres",
                "last_name": "Arguello Pitt",
                "nickname": "myphmonitor",
                "url": "",
                "description": ""
            },
            "comments": [],
            "attachments": [
                {
                    "id": 162,
                    "url": "http://goph.recipes/wp-content/uploads/2014/08/oatmeal-berries-coconut-1080x675.jpg",
                    "slug": "oatmeal-berries-coconut-1080x675",
                    "title": "oatmeal-berries-coconut-1080x675",
                    "description": "",
                    "caption": "",
                    "parent": 131,
                    "mime_type": "image/jpeg",
                    "images": {
                        "full": {
                            "url": "http://goph.recipes/wp-content/uploads/2014/08/oatmeal-berries-coconut-1080x675.jpg",
                            "width": 1080,
                            "height": 675
                        },
                        "thumbnail": {
                            "url": "http://goph.recipes/wp-content/uploads/2014/08/oatmeal-berries-coconut-1080x675-150x150.jpg",
                            "width": 150,
                            "height": 150
                        },
                        "medium": {
                            "url": "http://goph.recipes/wp-content/uploads/2014/08/oatmeal-berries-coconut-1080x675-300x187.jpg",
                            "width": 300,
                            "height": 187
                        }
                    }
                }
            ],
            "comment_count": 0,
            "comment_status": "closed",
            "custom_fields": {
                "serves": [
                    "2"
                ],
                "preparation": [
                    "Put all the ingredients in food processor and blend until smooth. Add some crushed ice cubes if desired. Best served immediately"
                ],
                "ingredients": [
                    "2 cups of strawberries\r\n\r\n1 banana\r\n\r\n2 cups of orange juice"
                ],
                "ph_information": [
                    "The alkalinity of the bananas will balance the acidity of the orange ice and strawberries. A great source of vitamin c and potassium (467 mg). 11 mg of vitamin c!"
                ],
                "ph_bracket": [
                    "6.5 to 7.2 bracket"
                ],
                "image": [
                    "162"
                ],
                "mealtime": [
                    "7"
                ]
            }
        },
        {
            "id": 129,
            "type": "recipe",
            "slug": "tarragon-and-almond-chicken",
            "url": "http://goph.recipes/recipe/tarragon-and-almond-chicken/",
            "status": "publish",
            "title": "Tarragon and almond chicken",
            "title_plain": "Tarragon and almond chicken",
            "content": "",
            "excerpt": "",
            "date": "2014-08-18 10:29:48",
            "modified": "2014-08-18 10:29:48",
            "categories": [],
            "tags": [],
            "author": {
                "id": 1,
                "slug": "myphmonitor",
                "name": "myphmonitor",
                "first_name": "Andres",
                "last_name": "Arguello Pitt",
                "nickname": "myphmonitor",
                "url": "",
                "description": ""
            },
            "comments": [],
            "attachments": [],
            "comment_count": 0,
            "comment_status": "closed",
            "custom_fields": {
                "serves": [
                    "2"
                ],
                "preparation": [
                    "Pre-heat the oven to 200 degrees centigrade or gas 5.\r\n\r\nMake three lengthways slits in the top of each fillet cutting halfway through the flesh.\r\n\r\nCream butter and herbs until smooth and blend in the almonds. Divide in two and spread in the slits in each fillet,\r\n\r\nWrap the prosciutto around each fillet overlapping the ends. Lay the parcels on a greased oven proof dish and cover loosely with foil.\r\n\r\nBake the chicken for 20 minutes or until fully cooked. Remove foil for the last five minutes.\r\n\r\nTransfer to warm plates and spoon over the melted butter that has collected in the bottom of the dish.\r\n\r\nGarnish with sprigs of tarragon or parsley and tomato halves.\r\n\r\nServe with baked potato and broccoli or green salad dressed with lemon juice and olive oil dressing.\r\n\r\n&nbsp;"
                ],
                "ingredients": [
                    "2 chicken fillets, boneless and skinned\r\n\r\n2 large thin slices prosciutto (dry cured ham)\r\n\r\n50 g butter, softened\r\n\r\nhalf a teaspoon of fresh tarragon, chopped\r\n\r\n1 teaspoon parsley chopped\r\n\r\nhalf teaspoon finely chopped chives\r\n\r\n25 g ground almonds\r\n\r\nTo garnish: 2 sprigs tarragon or parsley and one halved tomato.\r\n\r\nServe with baked potatoes and broccoli."
                ],
                "ph_information": [
                    "The almonds and herbs are highly alkaline and will balance the acidity of the chicken and prosciutto. Also broccoli and baked potatoes when eaten with their skins are highly alkalising. Broccoli is a great source of vitamin c and 400 g gives all the recommended daily allowance. Broccoli like all green and yellow vegetables has a pH between 7.5 and 8,"
                ],
                "ph_bracket": [
                    "6.5 to 7.2 bracket"
                ],
                "mealtime": [
                    "6"
                ]
            }
        },
        {
            "id": 127,
            "type": "recipe",
            "slug": "spanish-omelette-with-goat-cheese-cherry-tomato-and-rosemary",
            "url": "http://goph.recipes/recipe/spanish-omelette-with-goat-cheese-cherry-tomato-and-rosemary/",
            "status": "publish",
            "title": "Spanish Omelette with goat cheese, cherry tomato and rosemary",
            "title_plain": "Spanish Omelette with goat cheese, cherry tomato and rosemary",
            "content": "",
            "excerpt": "",
            "date": "2014-08-18 10:04:56",
            "modified": "2014-08-18 10:04:56",
            "categories": [],
            "tags": [],
            "author": {
                "id": 1,
                "slug": "myphmonitor",
                "name": "myphmonitor",
                "first_name": "Andres",
                "last_name": "Arguello Pitt",
                "nickname": "myphmonitor",
                "url": "",
                "description": ""
            },
            "comments": [],
            "attachments": [],
            "comment_count": 0,
            "comment_status": "closed",
            "custom_fields": {
                "serves": [
                    "2"
                ],
                "preparation": [
                    "Peel and chop the onion finely. Peel and cut potatoes into small dices.\r\n\r\nHeat the olive oil in a heavy non-stick pan.\r\n\r\nAdd diced potato and seasoning. Cover and leave on heat until cooked, but still slightly firm. Do not allow to brown.\r\n\r\nAdd onion and sauté until soft.\r\n\r\nWhisk eggs, salt and pepper, pour into the pan and cook over a low heat until the egg  sets underneath.\r\n\r\nAdd cherry tomatoes, goat cheese and rosemary.\r\n\r\nPlace a large plate on top of frying pan and invert. Then slide omelette back into pan on the uncooked side. Tidy the edges and cook until set underneath. Avoid overcooking as the centre should remain moist.\r\n\r\nTurn out onto a warm late and serve immediately with a green salad.\r\n\r\n&nbsp;"
                ],
                "ingredients": [
                    "2 tablespoons of olive oil\r\n\r\n2 small potatoes\r\n\r\n1 small onion\r\n\r\n4 eggs\r\n\r\nsalt and pepper\r\n\r\n8 cherry tomatoes halved\r\n\r\n50 g goat cheese, crumbled\r\n\r\n1 top fresh rosemary chopped\r\n\r\n&nbsp;\r\n\r\n&nbsp;\r\n\r\n&nbsp;"
                ],
                "ph_information": [
                    "When served with a green salad, the alkaline pH of the salad and cherry tomatoes will balance the acidity of the eggs, goat cheese  approximately 250 KCAL and potato. Chlorophyll gives the greens their green colour and assists the blood deliver oxygen throughout the body. So leafy greens are really high in chlorophyl . Phytonutrients also give some plants their orange, yellow and red colours but they help neutralise acids and are rich antioxidants. So fill up that plate."
                ],
                "ph_bracket": [
                    "6.5 to 7.2 bracket"
                ],
                "mealtime": [
                    "5"
                ]
            }
        },
        {
            "id": 123,
            "type": "recipe",
            "slug": "almond-milk-porridge",
            "url": "http://goph.recipes/recipe/almond-milk-porridge/",
            "status": "publish",
            "title": "Almond Milk Porridge",
            "title_plain": "Almond Milk Porridge",
            "content": "",
            "excerpt": "",
            "date": "2014-08-18 09:16:49",
            "modified": "2014-08-18 09:25:26",
            "categories": [],
            "tags": [],
            "author": {
                "id": 1,
                "slug": "myphmonitor",
                "name": "myphmonitor",
                "first_name": "Andres",
                "last_name": "Arguello Pitt",
                "nickname": "myphmonitor",
                "url": "",
                "description": ""
            },
            "comments": [],
            "attachments": [],
            "comment_count": 0,
            "comment_status": "closed",
            "custom_fields": {
                "serves": [
                    "2"
                ],
                "preparation": [
                    "Begin with lemon juice in water. A strongly alkaline starter.\r\n\r\nPut the oats in a  saucepan and cover with half water and half almond milk.\r\n\r\nCook gently over a low heat, stirring frequently until it begins to thick. Simmer for a few minutes until it begins to thicken. Simmer for a few minutes until it reaches the desired consistency. If it is too thick just add a little more water/almond milk gradually.\r\n\r\nAdd your preferred choice of ingredients for example cinnamon, mixed seeds or blueberries (fresh or frozen).\r\n\r\n&nbsp;"
                ],
                "ingredients": [
                    "Lemon,\r\n\r\n125 g/1 cup jumbo oats, almond milk\r\n\r\nCinnamon\r\n\r\nMixed seeds\r\n\r\nBlue berries\r\n\r\nOptions: fresh fruit, berries, bananas, apples, pears.\r\n\r\nSpices, for example ginger, nutmeg.\r\n\r\nNuts, for example, almonds, cashew, pecans\r\n\r\nSeeds such as flax, sunflower, sesame, pumpkin\r\n\r\nsweetener  Agave syrup.\r\n\r\n&nbsp;"
                ],
                "ph_information": [
                    "Porridge may be as healthy or unhealthy as you wish depending on choice of additional ingredients! It will have  a neutral pH if served with almond milk.\r\n\r\nAvoid cow's milk, cream, sugar, dried fruits and syrups should  be avoided."
                ],
                "ph_bracket": [
                    "6.5 to 7.2 bracket"
                ],
                "mealtime": [
                    "4"
                ]
            }
        },
        {
            "id": 93,
            "type": "recipe",
            "slug": "avocado-and-brocolli",
            "url": "http://goph.recipes/recipe/avocado-and-brocolli/",
            "status": "publish",
            "title": "Avocado and brocolli",
            "title_plain": "Avocado and brocolli",
            "content": "",
            "excerpt": "",
            "date": "2014-07-29 10:57:42",
            "modified": "2014-07-29 10:57:42",
            "categories": [],
            "tags": [],
            "author": {
                "id": 1,
                "slug": "myphmonitor",
                "name": "myphmonitor",
                "first_name": "Andres",
                "last_name": "Arguello Pitt",
                "nickname": "myphmonitor",
                "url": "",
                "description": ""
            },
            "comments": [],
            "attachments": [
                {
                    "id": 94,
                    "url": "http://goph.recipes/wp-content/uploads/2014/06/Avovado-and-Brocollie-large.png",
                    "slug": "avovado-and-brocollie-large",
                    "title": "Avovado-and-Brocollie-large",
                    "description": "",
                    "caption": "",
                    "parent": 93,
                    "mime_type": "image/png",
                    "images": {
                        "full": {
                            "url": "http://goph.recipes/wp-content/uploads/2014/06/Avovado-and-Brocollie-large.png",
                            "width": 446,
                            "height": 331
                        },
                        "thumbnail": {
                            "url": "http://goph.recipes/wp-content/uploads/2014/06/Avovado-and-Brocollie-large-150x150.png",
                            "width": 150,
                            "height": 150
                        },
                        "medium": {
                            "url": "http://goph.recipes/wp-content/uploads/2014/06/Avovado-and-Brocollie-large-300x222.png",
                            "width": 300,
                            "height": 222
                        },
                        "large": {
                            "url": "http://goph.recipes/wp-content/uploads/2014/06/Avovado-and-Brocollie-large.png",
                            "width": 446,
                            "height": 331
                        }
                    }
                }
            ],
            "comment_count": 0,
            "comment_status": "closed",
            "custom_fields": {
                "serves": [
                    "1"
                ],
                "preparation": [
                    "Take one avocado and grasp in your hand. If when you squeeze you feel the skin gives a little all over you will know that it is ripe. Slice in half, do so by cutting all around and then with the skill of the professional twist until the two parts separate. You can then take out that enormous seed with a spoon. Quickly scoop out that lovely soft creamy pulpous vegetable and squeeze a little lemon to prevent discolouration. Cover with cling film and place in the fridge.\r\n\r\nNext cook the broccoli for a couple of minutes just sufficient to break down the fibre. Now with a fork break down the broccoli in a small bowl and add the avocado. Mix together but don't totally break all the broccoli up. Have something to crunch. Salt and pepper to taste.\r\n\r\nPumpkin bread slices can be lightly buttered and the avocado mix piled on to make a delicious sandwich. Cut into four portions and bring to work for that morning snack.\r\n\r\nYou have the choice to eat out of the bowl if you cannot wait to butter the bread. Scrumptious.\r\n\r\n&nbsp;\r\n\r\nthe vegetable board"
                ],
                "ingredients": [
                    "Broccoli\r\n\r\nAvocado\r\n\r\nTwo slices of lemon\r\n\r\n3 slices of pumpkin bread\r\n\r\nSalt and pepper\r\n\r\n&nbsp;\r\n\r\n&nbsp;\r\n\r\n&nbsp;\r\n\r\n&nbsp;\r\n\r\n&nbsp;\r\n\r\n&nbsp;"
                ],
                "ph_information": [
                    "<strong>Alkaline forming food:</strong>\r\n\r\nBrocolli\r\n\r\nAvocado:\r\n\r\nPumpkin whole grain bread\r\n\r\nlemon\r\n\r\n<strong>Acid forming food</strong>\r\n\r\nOn metabolism the whole grain bread will undergo a change. But this recipe is ideal as a snack to maintain an alkaline diet.\r\n\r\n&nbsp;\r\n\r\n&nbsp;\r\n\r\n&nbsp;\r\n\r\n&nbsp;\r\n\r\n&nbsp;"
                ],
                "ph_bracket": [
                    "Where the pH readings are consistently low indicating acidity."
                ],
                "image": [
                    "94"
                ],
                "mealtime": [
                    "7"
                ]
            }
        },
        {
            "id": 49,
            "type": "recipe",
            "slug": "chicken-a-la-dublin",
            "url": "http://goph.recipes/recipe/chicken-a-la-dublin/",
            "status": "publish",
            "title": "Chicken a la Dublin",
            "title_plain": "Chicken a la Dublin",
            "content": "",
            "excerpt": "",
            "date": "2014-07-26 19:08:34",
            "modified": "2014-07-26 19:08:34",
            "categories": [],
            "tags": [],
            "author": {
                "id": 1,
                "slug": "myphmonitor",
                "name": "myphmonitor",
                "first_name": "Andres",
                "last_name": "Arguello Pitt",
                "nickname": "myphmonitor",
                "url": "",
                "description": ""
            },
            "comments": [],
            "attachments": [
                {
                    "id": 108,
                    "url": "http://goph.recipes/wp-content/uploads/2014/06/1242707_97986823.jpg",
                    "slug": "1242707_97986823",
                    "title": "1242707_97986823",
                    "description": "",
                    "caption": "",
                    "parent": 49,
                    "mime_type": "image/jpeg",
                    "images": {
                        "full": {
                            "url": "http://goph.recipes/wp-content/uploads/2014/06/1242707_97986823.jpg",
                            "width": 2000,
                            "height": 2832
                        },
                        "thumbnail": {
                            "url": "http://goph.recipes/wp-content/uploads/2014/06/1242707_97986823-150x150.jpg",
                            "width": 150,
                            "height": 150
                        },
                        "medium": {
                            "url": "http://goph.recipes/wp-content/uploads/2014/06/1242707_97986823-211x300.jpg",
                            "width": 211,
                            "height": 300
                        }
                    }
                }
            ],
            "comment_count": 0,
            "comment_status": "closed",
            "custom_fields": {
                "serves": [
                    "2"
                ],
                "preparation": [
                    "Cut chicken breast into pieces so that each piece fits into a teaspoon. Place in non-stick frying pan and sear the pieces, avoid scorching, just a nice light brown colour. Add the peppers, broccoli, carrots, onion, celery. The remainder of the oil should be put in the pan along with the Szechwan seasoning. Now stir in the garlic and the lemon juice and keep on the moderate heat for five minutes. Serve with the baby potatoes."
                ],
                "ingredients": [
                    "<ul>\r\n\t<li>2 organic chicken breasts</li>\r\n\t<li>1 tbs of olive oil</li>\r\n\t<li>half tsp sea salt</li>\r\n\t<li>1 and half tbs of grape seed oil</li>\r\n\t<li>1 quarter of a chopped onion</li>\r\n\t<li>half a garlic clove chopped</li>\r\n\t<li>stick of celery</li>\r\n\t<li>4 baby carrots</li>\r\n\t<li>3 slices of bell pepper</li>\r\n\t<li>handful of chopped broccoli</li>\r\n\t<li>juice of one lemon</li>\r\n\t<li>half a cup of chopped almonds</li>\r\n</ul>"
                ],
                "ph_information": [
                    "We should be avoiding acidifying foods except for white meat chicken. pH foods classified as 7.0 to 7.5 are healthy. Chicken breast is good and with so many recipes around need never be a boring dish. Knowing that the chicken has been given organic food is encouraging. This dish is nutritious . The ingredients testify to the alkalinity of the recipe. All herbs are alkaline. Whether you decide to marinade with limes, orange or ginger making the chicken citrus is an option. But the end result is a perfect alkaline dish.\r\n\r\nIt is not for nothing that broccoli is listed as a powerful alkaline vegetable. It is a cruciferous veggie like cauliflower, cabbage, kale and contains cancer-fighting properties. It is the only vegetable with a sizeable amount of sulforaphane, which is a compound that boosts the body's protective enzymes and flushers out cancer-causing chemicals.\r\n\r\n&nbsp;\r\n\r\n&nbsp;"
                ],
                "ph_bracket": [
                    "6.5 to 7.2"
                ],
                "image": [
                    "108"
                ],
                "mealtime": [
                    "6"
                ]
            }
        },
        {
            "id": 73,
            "type": "recipe",
            "slug": "sesame-toastie",
            "url": "http://goph.recipes/recipe/sesame-toastie/",
            "status": "publish",
            "title": "Sesame toastie",
            "title_plain": "Sesame toastie",
            "content": "",
            "excerpt": "",
            "date": "2014-07-26 19:05:16",
            "modified": "2014-07-26 19:05:16",
            "categories": [],
            "tags": [],
            "author": {
                "id": 1,
                "slug": "myphmonitor",
                "name": "myphmonitor",
                "first_name": "Andres",
                "last_name": "Arguello Pitt",
                "nickname": "myphmonitor",
                "url": "",
                "description": ""
            },
            "comments": [],
            "attachments": [
                {
                    "id": 107,
                    "url": "http://goph.recipes/wp-content/uploads/2014/06/oesnAVdaiefgd_bigger.jpg",
                    "slug": "oesnavdaiefgd_bigger",
                    "title": "oesnAVdaiefgd_bigger",
                    "description": "",
                    "caption": "",
                    "parent": 73,
                    "mime_type": "image/jpeg",
                    "images": {
                        "full": {
                            "url": "http://goph.recipes/wp-content/uploads/2014/06/oesnAVdaiefgd_bigger.jpg",
                            "width": 592,
                            "height": 279
                        },
                        "thumbnail": {
                            "url": "http://goph.recipes/wp-content/uploads/2014/06/oesnAVdaiefgd_bigger-150x150.jpg",
                            "width": 150,
                            "height": 150
                        },
                        "medium": {
                            "url": "http://goph.recipes/wp-content/uploads/2014/06/oesnAVdaiefgd_bigger-300x141.jpg",
                            "width": 300,
                            "height": 141
                        },
                        "large": {
                            "url": "http://goph.recipes/wp-content/uploads/2014/06/oesnAVdaiefgd_bigger.jpg",
                            "width": 592,
                            "height": 279
                        }
                    }
                }
            ],
            "comment_count": 0,
            "comment_status": "closed",
            "custom_fields": {
                "serves": [
                    "0"
                ],
                "preparation": [
                    "The best way to cook this is to do the spinach and the softening of the onions with the garlic in the frying pan first. Squeeze the orange juice over the spinach and onions. Make sure the garlic is coming through to give that distinctive aroma.\r\n\r\nPut the toastie wrap in the frying pan, reheat it up and put the spinach inside, fold over. Now poach the egg and keeping it nice and firm place on top of the wrap. Plenty of black pepper.\r\n\r\nServe with a nice mug of green and lemon teach."
                ],
                "ingredients": [
                    "<ul>\r\n\t<li>2 tbs olive oil</li>\r\n\t<li>1 onion finely chopped</li>\r\n\t<li>1 tbs sesame seeds</li>\r\n\t<li>1 garlic clove chopped</li>\r\n\t<li>1 toastie wrap</li>\r\n\t<li>two eggs</li>\r\n\t<li>2 tbs of olive oil</li>\r\n\t<li>black pepper freshly ground</li>\r\n\t<li>1 tbs lemon juice</li>\r\n</ul>"
                ],
                "ph_information": [
                    ""
                ],
                "ph_bracket": [
                    ""
                ],
                "image": [
                    "107"
                ],
                "mealtime": [
                    "7"
                ]
            }
        },
        {
            "id": 71,
            "type": "recipe",
            "slug": "chicken-with-coconut",
            "url": "http://goph.recipes/recipe/chicken-with-coconut/",
            "status": "publish",
            "title": "Chicken with coconut",
            "title_plain": "Chicken with coconut",
            "content": "",
            "excerpt": "",
            "date": "2014-07-26 19:03:48",
            "modified": "2014-07-26 19:03:48",
            "categories": [],
            "tags": [],
            "author": {
                "id": 1,
                "slug": "myphmonitor",
                "name": "myphmonitor",
                "first_name": "Andres",
                "last_name": "Arguello Pitt",
                "nickname": "myphmonitor",
                "url": "",
                "description": ""
            },
            "comments": [],
            "attachments": [
                {
                    "id": 83,
                    "url": "http://goph.recipes/wp-content/uploads/2014/06/coconut-and-chicken21.png",
                    "slug": "coconut-and-chicken2-2",
                    "title": "coconut-and-chicken2",
                    "description": "",
                    "caption": "",
                    "parent": 71,
                    "mime_type": "image/png",
                    "images": {
                        "full": {
                            "url": "http://goph.recipes/wp-content/uploads/2014/06/coconut-and-chicken21.png",
                            "width": 475,
                            "height": 366
                        },
                        "thumbnail": {
                            "url": "http://goph.recipes/wp-content/uploads/2014/06/coconut-and-chicken21-150x150.png",
                            "width": 150,
                            "height": 150
                        },
                        "medium": {
                            "url": "http://goph.recipes/wp-content/uploads/2014/06/coconut-and-chicken21-300x231.png",
                            "width": 300,
                            "height": 231
                        },
                        "large": {
                            "url": "http://goph.recipes/wp-content/uploads/2014/06/coconut-and-chicken21.png",
                            "width": 475,
                            "height": 366
                        }
                    }
                }
            ],
            "comment_count": 0,
            "comment_status": "closed",
            "custom_fields": {
                "serves": [
                    "2"
                ],
                "preparation": [
                    "This is a  stir fry with a difference. Grind your herbs and put in the coconut milk. Make sure you source your coconut milk and get the best quality. Put the coconut milk in a large bowl and toss in the herbs. With your little pieces of chicken you can now marinade. Set it up in the morning so the seasoning will have got through by the evening.\r\n\r\nBoil up the vegetable stock and add the brown rice and on a very low light, allow the rice to absorb the stock. A few extra herbs won't go astray here. Put the rice into a bowl and put in the warming oven.\r\n\r\n&nbsp;\r\n\r\nUsing a heavy frying pan or wok pour in the completely marinaded chicken with all the contents. A moderate heat only is required but check regularly in these few minutes that the chicken is well cooked. At this stage toss in the red peppers and continue on a moderate heat. You will know when this is all ready."
                ],
                "ingredients": [
                    "<ul>\r\n\t<li>1 chicken breast</li>\r\n\t<li>half tsp of chilli paste</li>\r\n\t<li>handful of fresh corianer</li>\r\n\t<li>1 garlic clove freshly crushed</li>\r\n\t<li>half tsp of rapeseed oil</li>\r\n\t<li>1 small red pepper, freshly deseeded</li>\r\n\t<li>200 ml of coconut milk</li>\r\n\t<li>freshly ground black pepper</li>\r\n\t<li>5g chopped nuts for sprinkling</li>\r\n\t<li>150g of brown rice</li>\r\n\t<li>three florets of broccoli</li>\r\n\t<li>350 ml of vegetable stock.</li>\r\n\t<li></li>\r\n</ul>"
                ],
                "ph_information": [
                    ""
                ],
                "ph_bracket": [
                    ""
                ],
                "image": [
                    "83"
                ],
                "mealtime": [
                    "6"
                ]
            }
        },
        {
            "id": 67,
            "type": "recipe",
            "slug": "tomato-and-basil-soup",
            "url": "http://goph.recipes/recipe/tomato-and-basil-soup/",
            "status": "publish",
            "title": "Tomato and basil soup",
            "title_plain": "Tomato and basil soup",
            "content": "",
            "excerpt": "",
            "date": "2014-07-26 11:51:45",
            "modified": "2014-07-26 12:05:56",
            "categories": [],
            "tags": [],
            "author": {
                "id": 1,
                "slug": "myphmonitor",
                "name": "myphmonitor",
                "first_name": "Andres",
                "last_name": "Arguello Pitt",
                "nickname": "myphmonitor",
                "url": "",
                "description": ""
            },
            "comments": [],
            "attachments": [
                {
                    "id": 68,
                    "url": "http://goph.recipes/wp-content/uploads/2014/06/tomatoe_soup.png",
                    "slug": "tomatoe_soup",
                    "title": "tomatoe_soup",
                    "description": "",
                    "caption": "",
                    "parent": 67,
                    "mime_type": "image/png",
                    "images": {
                        "full": {
                            "url": "http://goph.recipes/wp-content/uploads/2014/06/tomatoe_soup.png",
                            "width": 462,
                            "height": 524
                        },
                        "thumbnail": {
                            "url": "http://goph.recipes/wp-content/uploads/2014/06/tomatoe_soup-150x150.png",
                            "width": 150,
                            "height": 150
                        },
                        "medium": {
                            "url": "http://goph.recipes/wp-content/uploads/2014/06/tomatoe_soup-264x300.png",
                            "width": 264,
                            "height": 300
                        },
                        "large": {
                            "url": "http://goph.recipes/wp-content/uploads/2014/06/tomatoe_soup.png",
                            "width": 462,
                            "height": 524
                        }
                    }
                }
            ],
            "comment_count": 0,
            "comment_status": "closed",
            "custom_fields": {
                "serves": [
                    "2"
                ],
                "preparation": [
                    "In a large heavy frying pan (because this recipe is for 2) heat the olive oil and add garlic, yellow pepper and onion and cook until nice and soft, avoid scorching.\r\n\r\nNow pour in the tomatoes,  tomato puree and the vegetable stock. The remaining herbs can be put in at this stage.\r\n\r\nStir with a large wooden spoon to ensure everything is equally distributed.\r\n\r\nBring the mixture to boiling point then immediately reduce and simmer for about twenty minutes. Garnish with finely chopped basil and serve with fresh brown bread, or pumpkin bread it's your choice. Enjoy."
                ],
                "ingredients": [
                    "<ul>\r\n\t<li>1 tbs olive oil</li>\r\n\t<li>1 large red pepper</li>\r\n\t<li>1 garlic clove finely chopped</li>\r\n\t<li>400 g chopped tomatoes</li>\r\n\t<li>sprig of fresh thyme</li>\r\n\t<li>500 ml vegetable/bean stock</li>\r\n\t<li>sea salt and black pepper</li>\r\n</ul>"
                ],
                "ph_information": [
                    "Everything in this recipe is alkaline. The tomatoes are alkalising foods. The vegetable stock containing broccoli and  beans and lentils contain iron. The lentils contain iron, protein and essential amino acids. The tomatoes, whether you see them as fruit or vegetable are a good alkaline food source. They are a nutrient-dense superfood. Tomatoes do not just provide basic nutrition but they provide that all important lycopene which is a beneficial phytochemical. This lycopene is the antitoxin responsible for the red-faced tomato. Another important nutrient is choline the all important nutrient which helps our mobility. It has been known for a long time that persons suffering from prostate cancer should be eating tomatoes, in fact long before the onset of the cancer."
                ],
                "ph_bracket": [
                    "7.4 to 8.00"
                ],
                "image": [
                    "68"
                ],
                "mealtime": [
                    "5"
                ]
            }
        },
        {
            "id": 32,
            "type": "recipe",
            "slug": "salmon-with-rosemary-and-cherry-tomatoes",
            "url": "http://goph.recipes/recipe/salmon-with-rosemary-and-cherry-tomatoes/",
            "status": "publish",
            "title": "Fresh salmon with rosemary and cherry tomatoes!",
            "title_plain": "Fresh salmon with rosemary and cherry tomatoes!",
            "content": "",
            "excerpt": "",
            "date": "2014-06-18 09:58:15",
            "modified": "2014-06-20 13:27:26",
            "categories": [],
            "tags": [],
            "author": {
                "id": 1,
                "slug": "myphmonitor",
                "name": "myphmonitor",
                "first_name": "Andres",
                "last_name": "Arguello Pitt",
                "nickname": "myphmonitor",
                "url": "",
                "description": ""
            },
            "comments": [],
            "attachments": [
                {
                    "id": 33,
                    "url": "http://goph.recipes/wp-content/uploads/2014/06/stock-footage-sea-food-roasted-pink-salmon-fillet-with-chinese-onion-cherry-tomatoes-pieces-rosemary-twigs-and.jpg",
                    "slug": "stock-footage-sea-food-roasted-pink-salmon-fillet-with-chinese-onion-cherry-tomatoes-pieces-rosemary-twigs-and",
                    "title": "stock-footage-sea-food-roasted-pink-salmon-fillet-with-chinese-onion-cherry-tomatoes-pieces-rosemary-twigs-and",
                    "description": "",
                    "caption": "",
                    "parent": 32,
                    "mime_type": "image/jpeg",
                    "images": {
                        "full": {
                            "url": "http://goph.recipes/wp-content/uploads/2014/06/stock-footage-sea-food-roasted-pink-salmon-fillet-with-chinese-onion-cherry-tomatoes-pieces-rosemary-twigs-and.jpg",
                            "width": 400,
                            "height": 224
                        },
                        "thumbnail": {
                            "url": "http://goph.recipes/wp-content/uploads/2014/06/stock-footage-sea-food-roasted-pink-salmon-fillet-with-chinese-onion-cherry-tomatoes-pieces-rosemary-twigs-and-150x150.jpg",
                            "width": 150,
                            "height": 150
                        },
                        "medium": {
                            "url": "http://goph.recipes/wp-content/uploads/2014/06/stock-footage-sea-food-roasted-pink-salmon-fillet-with-chinese-onion-cherry-tomatoes-pieces-rosemary-twigs-and-300x168.jpg",
                            "width": 300,
                            "height": 168
                        },
                        "large": {
                            "url": "http://goph.recipes/wp-content/uploads/2014/06/stock-footage-sea-food-roasted-pink-salmon-fillet-with-chinese-onion-cherry-tomatoes-pieces-rosemary-twigs-and.jpg",
                            "width": 400,
                            "height": 224
                        }
                    }
                },
                {
                    "id": 36,
                    "url": "http://goph.recipes/wp-content/uploads/2014/06/Salmon_with_rosemary.png",
                    "slug": "salmon_with_rosemary",
                    "title": "Salmon_with_rosemary",
                    "description": "",
                    "caption": "",
                    "parent": 32,
                    "mime_type": "image/png",
                    "images": {
                        "full": {
                            "url": "http://goph.recipes/wp-content/uploads/2014/06/Salmon_with_rosemary.png",
                            "width": 469,
                            "height": 468
                        },
                        "thumbnail": {
                            "url": "http://goph.recipes/wp-content/uploads/2014/06/Salmon_with_rosemary-150x150.png",
                            "width": 150,
                            "height": 150
                        },
                        "medium": {
                            "url": "http://goph.recipes/wp-content/uploads/2014/06/Salmon_with_rosemary-300x300.png",
                            "width": 300,
                            "height": 300
                        },
                        "large": {
                            "url": "http://goph.recipes/wp-content/uploads/2014/06/Salmon_with_rosemary.png",
                            "width": 469,
                            "height": 468
                        }
                    }
                },
                {
                    "id": 37,
                    "url": "http://goph.recipes/wp-content/uploads/2014/06/Salmon_with_rosemary1.png",
                    "slug": "salmon_with_rosemary-2",
                    "title": "Salmon_with_rosemary",
                    "description": "",
                    "caption": "",
                    "parent": 32,
                    "mime_type": "image/png",
                    "images": {
                        "full": {
                            "url": "http://goph.recipes/wp-content/uploads/2014/06/Salmon_with_rosemary1.png",
                            "width": 469,
                            "height": 468
                        },
                        "thumbnail": {
                            "url": "http://goph.recipes/wp-content/uploads/2014/06/Salmon_with_rosemary1-150x150.png",
                            "width": 150,
                            "height": 150
                        },
                        "medium": {
                            "url": "http://goph.recipes/wp-content/uploads/2014/06/Salmon_with_rosemary1-300x300.png",
                            "width": 300,
                            "height": 300
                        },
                        "large": {
                            "url": "http://goph.recipes/wp-content/uploads/2014/06/Salmon_with_rosemary1.png",
                            "width": 469,
                            "height": 468
                        }
                    }
                }
            ],
            "comment_count": 0,
            "comment_status": "closed",
            "custom_fields": {
                "serves": [
                    "2"
                ],
                "preparation": [
                    "Heat oil in a tray in the oven at 90 degrees c. Add rosemary, garlic and a bay leaf. Put in all the\r\ntomatoes and turn up the oven to 160 degrees. Season the salmon, submerge in the oil and cook\r\nfor ten minutes. Place the beans in the dish. These have been boiled in water for a minute to\r\nsoften. Take out after 12 minutes using a slatted spoon to save the oil in the pan. Separate the\r\nherbs from the oil. Put the ﬁsh on two platters and sprinkle with basil and include some crunchy\r\nlettuce. Add zest of lemon.!"
                ],
                "ingredients": [
                    "<ul>\r\n\t<li>Two salmon steaks about 200g in weight.!</li>\r\n\t<li>200 ml of cold pressed virgin oil!</li>\r\n\t<li>6 unpeeled garlic cloves!</li>\r\n\t<li>1 sprig of Rosemary!</li>\r\n\t<li>1 bay leaf!</li>\r\n\t<li>10 cherry tomatoes!</li>\r\n\t<li>100g fresh beans!</li>\r\n\t<li>100g fresh green beans topped and tailed!</li>\r\n\t<li>200g tinned Cannellin fresh beans!</li>\r\n\t<li>2 small basil leaves!</li>\r\n\t<li>Fresh grated zest of lemon!</li>\r\n\t<li>Juice of half a lemon!</li>\r\n\t<li>Sea salt and black pepper.!</li>\r\n</ul>"
                ],
                "ph_information": [
                    "Alkaline forming food:\r\nlemons\r\nlettuce\r\nall the herbs\r\ntomatoes\r\nfresh beans\r\n\r\nAcid forming food:\r\nsalmon steaks\r\n\r\n<strong>Recipe aimed at 80 % alkaline to 20 % acid</strong>"
                ],
                "ph_bracket": [
                    "5.6 to 6.2"
                ],
                "image": [
                    "37"
                ],
                "mealtime": [
                    "5"
                ]
            }
        },
        {
            "id": 27,
            "type": "recipe",
            "slug": "test",
            "url": "http://goph.recipes/recipe/test/",
            "status": "publish",
            "title": "test",
            "title_plain": "test",
            "content": "<p>test</p>\n",
            "excerpt": "<p>test</p>\n",
            "date": "2014-06-18 09:24:50",
            "modified": "2014-06-18 09:49:50",
            "categories": [],
            "tags": [],
            "author": {
                "id": 1,
                "slug": "myphmonitor",
                "name": "myphmonitor",
                "first_name": "Andres",
                "last_name": "Arguello Pitt",
                "nickname": "myphmonitor",
                "url": "",
                "description": ""
            },
            "comments": [],
            "attachments": [
                {
                    "id": 30,
                    "url": "http://goph.recipes/wp-content/uploads/2014/06/brocoli_58182800.jpg",
                    "slug": "brocoli_58182800",
                    "title": "brocoli_58182800",
                    "description": "",
                    "caption": "",
                    "parent": 27,
                    "mime_type": "image/jpeg",
                    "images": {
                        "full": {
                            "url": "http://goph.recipes/wp-content/uploads/2014/06/brocoli_58182800.jpg",
                            "width": 728,
                            "height": 409
                        },
                        "thumbnail": {
                            "url": "http://goph.recipes/wp-content/uploads/2014/06/brocoli_58182800-150x150.jpg",
                            "width": 150,
                            "height": 150
                        },
                        "medium": {
                            "url": "http://goph.recipes/wp-content/uploads/2014/06/brocoli_58182800-300x168.jpg",
                            "width": 300,
                            "height": 168
                        }
                    }
                }
            ],
            "comment_count": 0,
            "comment_status": "closed",
            "custom_fields": {
                "serves": [
                    "4"
                ],
                "preparation": [
                    "Amet platea integer, velit porta porta! Penatibus et integer turpis dapibus nec porta porttitor, porttitor, platea, ut tristique! Enim cursus tortor placerat tincidunt aliquam, hac? Et sit pellentesque augue in, vel mattis tortor et dignissim dis et ac enim nisi? Augue sociis turpis turpis montes, magna porta arcu? Nisi phasellus, risus et enim elit? Velit pid ac! Porta? Dolor cras natoque eros integer et, purus lectus, elementum lectus tristique et, risus tristique. Turpis dolor natoque nec proin dapibus, scelerisque mauris, odio arcu, nec habitasse integer est et nunc magnis sed habitasse elementum dictumst, enim tincidunt vel aliquet nec porttitor duis est auctor nisi eu, adipiscing! Placerat tristique habitasse, duis in, placerat tincidunt, nisi porta? Pellentesque, odio rhoncus elit eu nec."
                ],
                "ingredients": [
                    "<ul>\r\n\t<li>Amet platea integer, velit porta porta!</li>\r\n\t<li>Penatibus et integer turpis dapibus nec</li>\r\n\t<li>porta porttitor, porttitor, platea, ut tristique!</li>\r\n\t<li>Enim cursus tortor placerat tincidunt aliquam, hac?</li>\r\n\t<li>Et sit pellentesque augue in, vel mattis tortor et dignissim dis et ac enim nisi?</li>\r\n</ul>\r\nAugue sociis turpis turpis montes, magna porta arcu? Nisi phasellus, risus et enim elit? Velit pid ac! Porta? Dolor cras natoque eros integer et, purus lectus, elementum lectus tristique et, risus tristique. Turpis dolor natoque nec proin dapibus, scelerisque mauris, odio arcu, nec habitasse integer est et nunc magnis sed habitasse elementum dictumst, enim tincidunt vel aliquet nec porttitor duis est auctor nisi eu, adipiscing! Placerat tristique habitasse, duis in, placerat tincidunt, nisi porta? Pellentesque, odio rhoncus elit eu nec."
                ],
                "ph_information": [
                    "Amet platea integer, velit porta porta! Penatibus et integer turpis dapibus nec porta porttitor, porttitor, platea, ut tristique! Enim cursus tortor placerat tincidunt aliquam, hac? Et sit pellentesque augue in, vel mattis tortor et dignissim dis et ac enim nisi? Augue sociis turpis turpis montes, magna porta arcu? Nisi phasellus, risus et enim elit? Velit pid ac! Porta? Dolor cras natoque eros integer et, purus lectus, elementum lectus tristique et, risus tristique. Turpis dolor natoque nec proin dapibus, scelerisque mauris, odio arcu, nec habitasse integer est et nunc magnis sed habitasse elementum dictumst, enim tincidunt vel aliquet nec porttitor duis est auctor nisi eu, adipiscing! Placerat tristique habitasse, duis in, placerat tincidunt, nisi porta? Pellentesque, odio rhoncus elit eu nec."
                ],
                "ph_bracket": [
                    "7"
                ],
                "image": [
                    "30"
                ],
                "mealtime": [
                    "5"
                ]
            }
        }
    ],
    "query": {
        "ignore_sticky_posts": true,
        "post_type": "recipe",
        "count": "40"
    }
}